<?xml version="1.0" encoding="UTF-8"?>
<svg width="18px" height="17px" viewBox="0 0 18 17" version="1.1" xmlns="http://www.w3.org/2000/svg" xmlns:xlink="http://www.w3.org/1999/xlink">
    <!-- Generator: Sketch 54.1 (76490) - https://sketchapp.com -->
    <title>Combined Shape 4</title>
    <desc>Created with Sketch.</desc>
    <g id="Page-1" stroke="none" stroke-width="1" fill="none" fill-rule="evenodd" stroke-linecap="round" stroke-linejoin="round">
        <g id="Аккаунты" transform="translate(-479.000000, -23.000000)" stroke="#1DE9B6" stroke-width="1.8">
            <g id="menu">
                <g id="меню" transform="translate(150.000000, 0.000000)">
                    <g id="Group-6" transform="translate(330.000000, 24.000000)">
                        <g id="Combined-Shape-4">
                            <path d="M8,9.64285714 C5.3490332,9.64285714 3.2,7.48423004 3.2,4.82142857 C3.2,2.1586271 5.3490332,0 8,0 C10.6509668,0 12.8,2.1586271 12.8,4.82142857 C12.8,7.48423004 10.6509668,9.64285714 8,9.64285714 Z M0,15 C1.79548153,12.1428571 4.4621482,10.7142857 8,10.7142857 C11.5378518,10.7142857 14.2045185,12.1428571 16,15 L0,15 Z" id="Combined-Shape"></path>
                        </g>
                    </g>
                </g>
            </g>
        </g>
    </g>
</svg>