<?xml version="1.0" encoding="UTF-8"?>
<svg width="16px" height="16px" viewBox="0 0 16 16" version="1.1" xmlns="http://www.w3.org/2000/svg" xmlns:xlink="http://www.w3.org/1999/xlink">
    <!-- Generator: Sketch 54.1 (76490) - https://sketchapp.com -->
    <title>settings</title>
    <desc>Created with Sketch.</desc>
    <g id="Page-1" stroke="none" stroke-width="1" fill="none" fill-rule="evenodd" opacity="0.5">
        <g id="Аккаунты" transform="translate(-1234.000000, -24.000000)" fill="#FFFFFF" fill-rule="nonzero">
            <g id="menu">
                <g id="Group-14" transform="translate(1025.000000, 16.000000)">
                    <g id="settings" transform="translate(209.000000, 8.000000)">
                        <path d="M9.35556451,12.9494089 C9.53109838,12.6970662 9.84632653,12.5823325 10.142996,12.6628072 L12.0142588,13.170407 C12.2954472,12.9517446 12.55856,12.7104828 12.8007991,12.4492394 L12.4582894,10.5412317 C12.4039774,10.2386773 12.5457484,9.93464837 12.8124296,9.78177559 L14.4950074,8.81725197 C14.5285268,8.547828 14.5454545,8.27507653 14.5454545,8 C14.5454545,7.91693845 14.5439111,7.83408189 14.5408325,7.75145679 L12.9494089,6.64443549 C12.6970662,6.46890162 12.5823325,6.15367347 12.6628072,5.85700397 L13.170407,3.9857412 C12.9517446,3.70455277 12.7104828,3.44144 12.4492394,3.19920093 L10.5412317,3.54171057 C10.2386773,3.59602262 9.93464837,3.45425161 9.78177559,3.18757037 L8.81725197,1.50499261 C8.547828,1.4714732 8.27507653,1.45454545 8,1.45454545 C7.91693845,1.45454545 7.83408189,1.45608891 7.75145679,1.4591675 L6.64443549,3.05059114 C6.46890162,3.30293383 6.15367347,3.4176675 5.85700397,3.33719277 L3.9857412,2.82959303 C3.70455277,3.04825542 3.44144,3.28951724 3.19920093,3.55076056 L3.54171057,5.45876829 C3.59602262,5.76132271 3.45425161,6.06535163 3.18757037,6.21822441 L1.50499261,7.18274803 C1.4714732,7.452172 1.45454545,7.72492347 1.45454545,8 C1.45454545,8.08306155 1.45608891,8.16591811 1.4591675,8.24854321 L3.05059114,9.35556451 C3.30293383,9.53109838 3.4176675,9.84632653 3.33719277,10.142996 L2.82959303,12.0142588 C3.04825542,12.2954472 3.28951724,12.55856 3.55076056,12.8007991 L5.45876829,12.4582894 C5.76132271,12.4039774 6.06535163,12.5457484 6.21822441,12.8124296 L7.18274803,14.4950074 C7.452172,14.5285268 7.72492347,14.5454545 8,14.5454545 C8.08306155,14.5454545 8.16591811,14.5439111 8.24854321,14.5408325 L9.35556451,12.9494089 Z M9.24200384,15.6598248 C9.11884977,15.8368678 8.92347226,15.9501215 8.70863578,15.9690003 C8.473898,15.9896278 8.23753117,16 8,16 C7.52722895,16 7.05933917,15.9589106 6.60010288,15.8778077 C6.3876962,15.8402959 6.20289821,15.7104364 6.09562855,15.5233082 L5.21123791,13.9805196 L3.46226399,14.2944808 C3.25015584,14.3325567 3.03208384,14.2746059 2.86685906,14.1362571 C2.32495729,13.6825025 1.84474782,13.158828 1.43972225,12.5796111 C1.31617059,12.402923 1.27738195,12.1805234 1.33382615,11.9724423 L1.79918145,10.2569134 L0.340175154,9.24200384 C0.163132231,9.11884977 0.0498784978,8.92347226 0.0309997415,8.70863578 C0.0103721579,8.473898 0,8.23753117 0,8 C0,7.52722895 0.041089393,7.05933917 0.122192271,6.60010288 C0.159704098,6.3876962 0.289563635,6.20289821 0.476691807,6.09562855 L2.01948039,5.21123791 L1.70551918,3.46226399 C1.66744329,3.25015584 1.72539406,3.03208384 1.86374293,2.86685906 C2.31749752,2.32495729 2.84117204,1.84474782 3.42038888,1.43972225 C3.59707698,1.31617059 3.81947658,1.27738195 4.0275577,1.33382615 L5.74308662,1.79918145 L6.75799616,0.340175154 C6.88115023,0.163132231 7.07652774,0.0498784978 7.29136422,0.0309997415 C7.526102,0.0103721579 7.76246883,0 8,0 C8.47277105,0 8.94066083,0.041089393 9.39989712,0.122192271 C9.6123038,0.159704098 9.79710179,0.289563635 9.90437145,0.476691807 L10.7887621,2.01948039 L12.537736,1.70551918 C12.7498442,1.66744329 12.9679162,1.72539406 13.1331409,1.86374293 C13.6750427,2.31749752 14.1552522,2.84117204 14.5602778,3.42038888 C14.6838294,3.59707698 14.722618,3.81947658 14.6661738,4.0275577 L14.2008186,5.74308662 L15.6598248,6.75799616 C15.8368678,6.88115023 15.9501215,7.07652774 15.9690003,7.29136422 C15.9896278,7.526102 16,7.76246883 16,8 C16,8.47277105 15.9589106,8.94066083 15.8778077,9.39989712 C15.8402959,9.6123038 15.7104364,9.79710179 15.5233082,9.90437145 L13.9805196,10.7887621 L14.2944808,12.537736 C14.3325567,12.7498442 14.2746059,12.9679162 14.1362571,13.1331409 C13.6825025,13.6750427 13.158828,14.1552522 12.5796111,14.5602778 C12.402923,14.6838294 12.1805234,14.722618 11.9724423,14.6661738 L10.2569134,14.2008186 L9.24200384,15.6598248 Z M8,11.2 C6.2326888,11.2 4.8,9.7673112 4.8,8 C4.8,6.2326888 6.2326888,4.8 8,4.8 C9.7673112,4.8 11.2,6.2326888 11.2,8 C11.2,9.7673112 9.7673112,11.2 8,11.2 Z M8,9.6 C8.8836556,9.6 9.6,8.8836556 9.6,8 C9.6,7.1163444 8.8836556,6.4 8,6.4 C7.1163444,6.4 6.4,7.1163444 6.4,8 C6.4,8.8836556 7.1163444,9.6 8,9.6 Z" id="Combined-Shape"></path>
                    </g>
                </g>
            </g>
        </g>
    </g>
</svg>